Downloading from Copernicus Climate Service
…
Programmatically

You can also use this R package to look for datasets. You could start
by listing them all:

cds_list_datasets()
#> # A tibble: 125 x 18
#>    type  id    stac_version title description summaries    providers    keywords
#>    <chr> <chr> <chr>        <chr> <chr>       <list>       <list>       <list>  
#>  1 Coll~ rean~ 1.1.0        ERA5~ "ERA5 is t~ <named list> <named list> <list>  
#>  2 Coll~ rean~ 1.1.0        ERA5~ "ERA5-Land~ <named list> <named list> <list>  
#>  3 Coll~ rean~ 1.1.0        ERA5~ "ERA5 is t~ <named list> <named list> <list>  
#>  4 Coll~ deri~ 1.1.0        ERA5~ "ERA5 is t~ <named list> <named list> <list>  
#>  5 Coll~ ecv-~ 1.1.0        Esse~ "The Essen~ <named list> <named list> <list>  
#>  6 Coll~ rean~ 1.1.0        ERA5~ "ERA5-Land~ <named list> <named list> <list>  
#>  7 Coll~ insi~ 1.1.0        Comp~ "The Compr~ <named list> <named list> <list>  
#>  8 Coll~ sate~ 1.1.0        Aero~ "This data~ <named list> <named list> <list>  
#>  9 Coll~ sis-~ 1.1.0        Agro~ "This data~ <named list> <named list> <list>  
#> 10 Coll~ deri~ 1.1.0        Ther~ "This data~ <named list> <named list> <list>  
#> # i 115 more rows
#> # i 10 more variables: license <chr>, extent <list>, links <list>,
#> #   assets <named list>, published <chr>, updated <chr>, `sci:doi` <chr>,
#> #   `cads:disabled_reason` <chr>, `cads:sanity_check` <list>,
#> #   `cads:message` <list>
…
